﻿## Interface: 30300
## Title: Carbonite 3.34 RUS
## Version: 3.34
## Author: Carbon Based Creations, LLC
## Notes: Локализировал sairrysh. Перевод Scorp
## DefaultState: Enabled
## LoadOnDemand: 0
## SavedVariables: NxData, NxCombatOpts, NxMapOpts
## SavedVariablesPerCharacter: NxCData

Localization.lua
Carbonite.lua
Carbonite.xml
